{
"Paths": {
    "hactoolPath":  "hactool",
    "keysPath":     "keys.txt",
    "NXclientPath": "nx_tls_client_cert.pem",
    "ShopNPath":    "ShopN.pem"
    },
"Values": {
    "Region":      "GB",
    "Firmware":    "5.1.0-0",
    "DeviceID":    "0000000000000000",
    "Environment": "lp1"
    }
}
